{"response":{"status":"test","userTier":"developer","total":72,"startIndex":1,"pageSize":10,"currentPage":1,"pages":8,"orderBy":"newest","results":[{"id":"politics/live/2016/jul/07/gove-leadsom-tory-leadership-vote-final-two-politics-live","type":"liveblog","sectionId":"politics","sectionName":"Politics","webPublicationDate":"2016-07-07T09:41:15Z","webTitle":"Tory leadership battle: Andrea Leadsom says 'let's banish pessimists'  – live","webUrl":"https://www.theguardian.com/politics/live/2016/jul/07/gove-leadsom-tory-leadership-vote-final-two-politics-live","apiUrl":"https://content.guardianapis.com/politics/live/2016/jul/07/gove-leadsom-tory-leadership-vote-final-two-politics-live","isHosted":false},{"id":"technology/2016/jul/07/snapchat-memories-photo-messaging-service","type":"article","sectionId":"technology","sectionName":"Technology","webPublicationDate":"2016-07-07T09:36:21Z","webTitle":"Snapchat Memories: the photo messaging service is less ephemeral than ever","webUrl":"https://www.theguardian.com/technology/2016/jul/07/snapchat-memories-photo-messaging-service","apiUrl":"https://content.guardianapis.com/technology/2016/jul/07/snapchat-memories-photo-messaging-service","isHosted":false},{"id":"business/live/2016/jul/07/pound-dollar-brexit-politicians-city-stock-markets-retail-live","type":"liveblog","sectionId":"business","sectionName":"Business","webPublicationDate":"2016-07-07T09:35:44Z","webTitle":"Pound could 'hit parity with dollar' unless politicians get a grip on Brexit – business live","webUrl":"https://www.theguardian.com/business/live/2016/jul/07/pound-dollar-brexit-politicians-city-stock-markets-retail-live","apiUrl":"https://content.guardianapis.com/business/live/2016/jul/07/pound-dollar-brexit-politicians-city-stock-markets-retail-live","isHosted":false},{"id":"football/2016/jul/07/aaron-ramsey-fears-he-will-not-be-fit-for-start-of-arsenal-season-premier-league-wales-euro-2016","type":"article","sectionId":"football","sectionName":"Football","webPublicationDate":"2016-07-07T09:28:00Z","webTitle":"Aaron Ramsey fears he will not be fit for start of Arsenal’s season","webUrl":"https://www.theguardian.com/football/2016/jul/07/aaron-ramsey-fears-he-will-not-be-fit-for-start-of-arsenal-season-premier-league-wales-euro-2016","apiUrl":"https://content.guardianapis.com/football/2016/jul/07/aaron-ramsey-fears-he-will-not-be-fit-for-start-of-arsenal-season-premier-league-wales-euro-2016","isHosted":false},{"id":"media/mediamonkeyblog/2016/jul/07/theresa-may-spectator-boris-tory-leadership","type":"article","sectionId":"media","sectionName":"Media","webPublicationDate":"2016-07-07T09:25:38Z","webTitle":"Theresa May schmoozes the Spectator – but where's Boris?","webUrl":"https://www.theguardian.com/media/mediamonkeyblog/2016/jul/07/theresa-may-spectator-boris-tory-leadership","apiUrl":"https://content.guardianapis.com/media/mediamonkeyblog/2016/jul/07/theresa-may-spectator-boris-tory-leadership","isHosted":false},{"id":"media-network/2016/jul/07/bricks-and-mortar-ecommerce-retail-digital","type":"article","sectionId":"media-network","sectionName":"Media Network","webPublicationDate":"2016-07-07T09:23:14Z","webTitle":"Back to bricks and mortar: how e-commerce has embraced the real world","webUrl":"https://www.theguardian.com/media-network/2016/jul/07/bricks-and-mortar-ecommerce-retail-digital","apiUrl":"https://content.guardianapis.com/media-network/2016/jul/07/bricks-and-mortar-ecommerce-retail-digital","isHosted":false},{"id":"politics/2016/jul/07/tory-leadership-andrea-leadsom-promises-prosperity-not-austerity","type":"article","sectionId":"politics","sectionName":"Politics","webPublicationDate":"2016-07-07T09:23:13Z","webTitle":"Angela Leadsom calls for 'prosperity not austerity' in Tory leadership pitch","webUrl":"https://www.theguardian.com/politics/2016/jul/07/tory-leadership-andrea-leadsom-promises-prosperity-not-austerity","apiUrl":"https://content.guardianapis.com/politics/2016/jul/07/tory-leadership-andrea-leadsom-promises-prosperity-not-austerity","isHosted":false},{"id":"football/blog/2016/jul/07/henrikh-mkhitaryan-manchester-united-signing","type":"article","sectionId":"football","sectionName":"Football","webPublicationDate":"2016-07-07T09:22:40Z","webTitle":"Henrikh Mkhitaryan: 'an incredible combination of speed and technique'","webUrl":"https://www.theguardian.com/football/blog/2016/jul/07/henrikh-mkhitaryan-manchester-united-signing","apiUrl":"https://content.guardianapis.com/football/blog/2016/jul/07/henrikh-mkhitaryan-manchester-united-signing","isHosted":false},{"id":"sport/2016/jul/07/euro-finals-a-nascar-pile-up-and-kevin-durant-feels-the-thunders-wrath","type":"article","sectionId":"sport","sectionName":"Sport","webPublicationDate":"2016-07-07T09:21:43Z","webTitle":"Euro finals, a Nascar pile-up and Kevin Durant feels the Thunder's wrath | Classic YouTube","webUrl":"https://www.theguardian.com/sport/2016/jul/07/euro-finals-a-nascar-pile-up-and-kevin-durant-feels-the-thunders-wrath","apiUrl":"https://content.guardianapis.com/sport/2016/jul/07/euro-finals-a-nascar-pile-up-and-kevin-durant-feels-the-thunders-wrath","isHosted":false},{"id":"football/2016/jul/07/paul-pogba-agent-to-speed-up-move-to-manchester-united-or-real-madrid-juventus","type":"article","sectionId":"football","sectionName":"Football","webPublicationDate":"2016-07-07T09:12:40Z","webTitle":"Paul Pogba’s agent to meet Juventus after Euros to discuss move to Manchester United","webUrl":"https://www.theguardian.com/football/2016/jul/07/paul-pogba-agent-to-speed-up-move-to-manchester-united-or-real-madrid-juventus","apiUrl":"https://content.guardianapis.com/football/2016/jul/07/paul-pogba-agent-to-speed-up-move-to-manchester-united-or-real-madrid-juventus","isHosted":false}]}}
